{
  "project_info": {
    "project_number": "680525075813",
    "firebase_url": "https://sample-firebase-database-65f40.firebaseio.com",
    "project_id": "sample-firebase-database-65f40",
    "storage_bucket": "sample-firebase-database-65f40.appspot.com"
  },
  "client": [
    {
      "client_info": {
        "mobilesdk_app_id": "1:680525075813:android:e3262e1ee143cb70affd8c",
        "android_client_info": {
          "package_name": "com.si.app.samplefirebasedatabase"
        }
      },
      "oauth_client": [
        {
          "client_id": "680525075813-bvpoaqb0og7v93kmdtjs3qvhtb6um9et.apps.googleusercontent.com",
          "client_type": 1,
          "android_info": {
            "package_name": "com.si.app.samplefirebasedatabase",
            "certificate_hash": "91e5251d15e707742e114b82a944c1e3b00ff4e9"
          }
        },
        {
          "client_id": "680525075813-c55cqu9agdd2gmbaaj5fp79jk9sjbh72.apps.googleusercontent.com",
          "client_type": 3
        }
      ],
      "api_key": [
        {
          "current_key": "AIzaSyB4pX9hoaoTAFuoXttLDtP661xROuf3vnA"
        }
      ],
      "services": {
        "appinvite_service": {
          "other_platform_oauth_client": [
            {
              "client_id": "680525075813-c55cqu9agdd2gmbaaj5fp79jk9sjbh72.apps.googleusercontent.com",
              "client_type": 3
            }
          ]
        }
      }
    }
  ],
  "configuration_version": "1"
}